{
  "Version": "1.0",
  "IdentityManager": {
    "Default": {}
  },
"CredentialsProvider": {
  "CognitoIdentity": {
    "Default": {
      "PoolId": "eu-central-1:3634a1e8-4f3f-47b8-b0bb-e4958d217594",
      "Region": "eu-central-1"
    }
  }
},
  "S3TransferUtility": {
    "Default": {
      "Bucket": "masterlures",
      "Region": "eu-central-1"
    }
  }
}

